[
  {
    "content": "Nulla, explicabo officiis? Adipisci, deserunt pariatur? Veniam quod quibusdam eos adipisci temporibus perferendis assumenda. Aliquid, ut quam aperiam distinctio architecto commodi! Vel placeat modi autem corporis, provident exercitationem? Quae quos ex molestiae tenetur natus veritatis distinctio.",
    "date": "2018-07-30T15:43:05",
    "title": "10 Ways We Use Facebook at UConn",
    "status": "publish",
    "department": "social"
  },
  {
    "content": "Lorem ipsum dolor sit amet consectetur adipisicing elit. Quibusdam consequatur itaque aliquam dolorum voluptatum veritatis sint iure porro officia soluta est, aspernatur odio velit, molestias, sunt quasi quam fugiat quia! Qui necessitatibus quibusdam nisi ad itaque quas ducimus obcaecati in sequi, facilis ab corporis veritatis nesciunt laborum fuga, inventore rerum excepturi illum aut repellendus! Nulla, explicabo officiis? Adipisci, deserunt pariatur? Veniam quod quibusdam eos adipisci temporibus perferendis assumenda. Aliquid, ut quam aperiam distinctio architecto commodi! Vel placeat modi autem corporis, provident exercitationem? Quae quos ex molestiae tenetur natus veritatis distinctio.",
    "date": "2018-07-22T15:43:05",
    "title": "A Day in the Life of a UConn Student",
    "status": "publish",
    "department": "social"
  },
  {
    "content": "Nulla, explicabo officiis? Adipisci, deserunt pariatur? Veniam quod quibusdam eos adipisci temporibus perferendis assumenda. Aliquid, ut quam aperiam distinctio architecto commodi! Vel placeat modi autem corporis, provident exercitationem? Quae quos ex molestiae tenetur natus veritatis distinctio.",
    "date": "2018-06-18T15:43:05",
    "title": "Building Community One Post at a Time",
    "status": "publish",
    "department": "social"
  },
  {
    "content": "Labore, nihil? Quibusdam exercitationem fugit minus, eaque dolor vel accusamus enim obcaecati quis placeat quas quae fugiat quam deleniti illo. Facilis dolore fugiat non ut cumque. Dolore numquam ipsa aliquam.",
    "date": "2018-06-01T15:43:05",
    "title": "Is Twitter Still a Dumpster Fire?",
    "status": "publish",
    "department": "social"
  },
  {
    "content": "Labore, nihil? Quibusdam exercitationem fugit minus, eaque dolor vel accusamus enim obcaecati quis placeat quas quae fugiat quam deleniti illo. Facilis dolore fugiat non ut cumque. Dolore numquam ipsa aliquam. Nostrum provident voluptas velit labore sapiente? Perspiciatis eligendi culpa velit non voluptatem sapiente accusantium, facilis ipsum rerum natus praesentium eaque voluptatibus dolore omnis reprehenderit alias iste officiis. Exercitationem, id nemo!",
    "date": "2018-05-27T15:43:05",
    "title": "Twitter is a Dumpster Fire",
    "status": "publish",
    "department": "social"
  },
  {
    "content": "Nulla, explicabo officiis? Adipisci, deserunt pariatur? Veniam quod quibusdam eos adipisci temporibus perferendis assumenda. Aliquid, ut quam aperiam distinctio architecto commodi! Vel placeat modi autem corporis, provident exercitationem? Quae quos ex molestiae tenetur natus veritatis distinctio.",
    "date": "2018-07-27T15:43:05",
    "title": "Gradients!",
    "status": "publish",
    "department": "web-design"
  },
  {
    "content": "Lorem ipsum dolor sit amet consectetur adipisicing elit. Quibusdam consequatur itaque aliquam dolorum voluptatum veritatis sint iure porro officia soluta est, aspernatur odio velit, molestias, sunt quasi quam fugiat quia! Qui necessitatibus quibusdam nisi ad itaque quas ducimus obcaecati in sequi, facilis ab corporis veritatis nesciunt laborum fuga, inventore rerum excepturi illum aut repellendus! Nulla, explicabo officiis? Adipisci, deserunt pariatur? Veniam quod quibusdam eos adipisci temporibus perferendis assumenda. Aliquid, ut quam aperiam distinctio architecto commodi! Vel placeat modi autem corporis, provident exercitationem? Quae quos ex molestiae tenetur natus veritatis distinctio.",
    "date": "2018-07-12T15:43:05",
    "title": "Fonts are Awesome",
    "status": "publish",
    "department": "web-design"
  },
  {
    "content": "Nulla, explicabo officiis? Adipisci, deserunt pariatur? Veniam quod quibusdam eos adipisci temporibus perferendis assumenda. Aliquid, ut quam aperiam distinctio architecto commodi! Vel placeat modi autem corporis, provident exercitationem? Quae quos ex molestiae tenetur natus veritatis distinctio.",
    "date": "2018-06-17T15:43:05",
    "title": "SVGs and you",
    "status": "publish",
    "department": "web-design"
  },
  {
    "content": "Labore, nihil? Quibusdam exercitationem fugit minus, eaque dolor vel accusamus enim obcaecati quis placeat quas quae fugiat quam deleniti illo. Facilis dolore fugiat non ut cumque. Dolore numquam ipsa aliquam.",
    "date": "2018-06-03T15:43:05",
    "title": "Picking the Perfect Color Palette",
    "status": "publish",
    "department": "web-design"
  },
  {
    "content": "Labore, nihil? Quibusdam exercitationem fugit minus, eaque dolor vel accusamus enim obcaecati quis placeat quas quae fugiat quam deleniti illo. Facilis dolore fugiat non ut cumque. Dolore numquam ipsa aliquam. Nostrum provident voluptas velit labore sapiente? Perspiciatis eligendi culpa velit non voluptatem sapiente accusantium, facilis ipsum rerum natus praesentium eaque voluptatibus dolore omnis reprehenderit alias iste officiis. Exercitationem, id nemo!",
    "date": "2018-05-28T15:43:05",
    "title": "Padding and Margin are Great",
    "status": "publish",
    "department": "web-design"
  },
  {
    "content": "Nulla, explicabo officiis? Adipisci, deserunt pariatur? Veniam quod quibusdam eos adipisci temporibus perferendis assumenda. Aliquid, ut quam aperiam distinctio architecto commodi! Vel placeat modi autem corporis, provident exercitationem? Quae quos ex molestiae tenetur natus veritatis distinctio.",
    "date": "2018-07-25T15:43:05",
    "title": "5 Things to Know About Docker",
    "status": "publish",
    "department": "web-development"
  },
  {
    "content": "Lorem ipsum dolor sit amet consectetur adipisicing elit. Quibusdam consequatur itaque aliquam dolorum voluptatum veritatis sint iure porro officia soluta est, aspernatur odio velit, molestias, sunt quasi quam fugiat quia! Qui necessitatibus quibusdam nisi ad itaque quas ducimus obcaecati in sequi, facilis ab corporis veritatis nesciunt laborum fuga, inventore rerum excepturi illum aut repellendus! Nulla, explicabo officiis? Adipisci, deserunt pariatur? Veniam quod quibusdam eos adipisci temporibus perferendis assumenda. Aliquid, ut quam aperiam distinctio architecto commodi! Vel placeat modi autem corporis, provident exercitationem? Quae quos ex molestiae tenetur natus veritatis distinctio.",
    "date": "2018-07-12T15:43:05",
    "title": "Using Jenkins for Continuous Integration",
    "status": "publish",
    "department": "web-development"
  },
  {
    "content": "Nulla, explicabo officiis? Adipisci, deserunt pariatur? Veniam quod quibusdam eos adipisci temporibus perferendis assumenda. Aliquid, ut quam aperiam distinctio architecto commodi! Vel placeat modi autem corporis, provident exercitationem? Quae quos ex molestiae tenetur natus veritatis distinctio.",
    "date": "2018-06-13T15:43:05",
    "title": "Writing Custom Beaver Builder Modules",
    "status": "publish",
    "department": "web-development"
  },
  {
    "content": "Labore, nihil? Quibusdam exercitationem fugit minus, eaque dolor vel accusamus enim obcaecati quis placeat quas quae fugiat quam deleniti illo. Facilis dolore fugiat non ut cumque. Dolore numquam ipsa aliquam.",
    "date": "2018-06-06T15:43:05",
    "title": "Exploring GraphQL",
    "status": "publish",
    "department": "web-development"
  },
  {
    "content": "Labore, nihil? Quibusdam exercitationem fugit minus, eaque dolor vel accusamus enim obcaecati quis placeat quas quae fugiat quam deleniti illo. Facilis dolore fugiat non ut cumque. Dolore numquam ipsa aliquam. Nostrum provident voluptas velit labore sapiente? Perspiciatis eligendi culpa velit non voluptatem sapiente accusantium, facilis ipsum rerum natus praesentium eaque voluptatibus dolore omnis reprehenderit alias iste officiis. Exercitationem, id nemo!",
    "date": "2018-05-21T15:43:05",
    "title": "Developing for Accessibility",
    "status": "publish",
    "department": "web-development"
  }
]